<?xml version="1.0" encoding="UTF-8"?>
<svg width="264px" height="73px" viewBox="0 0 264 73" version="1.1" xmlns="http://www.w3.org/2000/svg" xmlns:xlink="http://www.w3.org/1999/xlink">
    <!-- Generator: Sketch 47.1 (45422) - http://www.bohemiancoding.com/sketch -->
    <title>logo-eng@1x</title>
    <desc>Created with Sketch.</desc>
    <defs>
        <linearGradient x1="100%" y1="100%" x2="0%" y2="0%" id="linearGradient-1">
            <stop stop-color="#16B0FD" offset="0%"></stop>
            <stop stop-color="#1681FD" offset="100%"></stop>
        </linearGradient>
    </defs>
    <g id="Welcome" stroke="none" stroke-width="1" fill="none" fill-rule="evenodd">
        <g id="logo-eng">
            <g id="logo2">
                <g>
                    <g id="Group" fill-rule="nonzero" fill="url(#linearGradient-1)">
                        <path d="M85.3134837,63.3962624 L85.3876509,63.3609829 L73.9835592,40.0740304 L61.1768495,40.0740304 L61.1768495,40.0894341 L61.1687769,40.0740304 L60.3534421,40.0740304 L58.2934099,44.9321662 L61.0310378,50.519246 L62.9719987,50.519246 L60.2086394,44.8789985 L60.8408266,43.3893093 L70.9058722,64.3681877 L69.3604697,67.5165101 L83.3604138,67.5165101 L85.389669,63.3962624 L85.3134837,63.3962624 Z M82.3155138,65.7560135 L72.2661089,65.7560135 L72.8569239,64.5247094 L82.9537554,64.5247094 L82.3155138,65.7560135 Z" id="Shape"></path>
                        <path d="M50.2889011,16.9679474 L50.281333,16.9520468 L49.4659982,16.9520468 L47.405966,21.8101826 L57.7727259,42.826328 L58.1914931,41.9726636 L58.1914931,41.9726636 L58.43014,41.4867009 L58.7414405,40.8531607 L58.7414405,40.8531607 L59.7954221,38.7060803 L60.4124731,38.7060803 L60.7817956,38.7060803 L71.8755959,38.7060803 L73.2201919,38.7060803 L73.7257398,38.7060803 L73.7994025,38.6708008 L63.0961153,16.9520468 L50.2889011,16.9520468 L50.2889011,16.9679474 L50.2889011,16.9679474 Z M49.3211955,21.7570149 L49.9533827,20.2673257 L58.3756498,37.7262047 L57.7853393,38.9157697 L49.3211955,21.7570149 Z" id="Shape"></path>
                        <path d="M41.1355572,51.8300532 L14.2259775,51.8300532 L14.2254729,51.8459538 L14.2179049,51.8300532 L13.4025701,51.8300532 L11.1831037,56.6886859 L13.0529247,60.6787473 L13.0130661,60.6668219 L13.2027727,61.0703001 L13.2355677,61.0703001 L16.1785428,67.3515412 L16.1785428,67.4762617 L16.2370694,67.4762617 L16.2562418,67.517007 L16.342518,67.4762617 L42.5699611,67.4762617 L43.9044664,67.4762617 L44.5462398,67.4762617 L46.522014,63.3614798 L41.1355572,51.8300532 Z M17.3788408,65.7560135 L13.1003513,56.6360151 L13.7809742,55.145829 L17.9893328,64.55502 L18.0544183,64.5247094 L44.100732,64.5247094 L43.4619858,65.7560135 L17.3788408,65.7560135 L17.3788408,65.7560135 Z" id="Shape"></path>
                        <path d="M32.5397288,4.56546505 L30.510978,0.445217315 L16.511034,0.445217315 L0.269423747,33.318752 L2.32895134,38.1768878 L3.14428613,38.1768878 L19.5185901,4.56546505 L32.5397288,4.56546505 Z M2.81583134,34.8621058 L2.18364415,33.3719197 L17.4787395,2.41739089 L18.0554274,3.59204907 L2.81583134,34.8621058 Z" id="Shape"></path>
                        <path d="M34.2349793,44.5202408 L35.0498095,44.5202408 L35.0583867,44.5033464 L35.0583867,44.5202408 L47.8656009,44.5202408 L52.7520597,34.5908015 L51.7439911,32.6966403 L46.7717607,42.8004895 L35.8843168,42.8004895 L49.282346,15.1557738 L62.3024757,15.1557738 L60.2737249,11.0355261 L46.2737809,11.0355261 L32.1764608,39.662105 L34.2349793,44.5202408 Z M47.2424955,13.0091903 L47.8186788,14.1818609 L34.7223638,41.2049619 L34.0901767,39.7147758 L47.2424955,13.0091903 Z" id="Shape"></path>
                        <polygon id="Shape" points="20.7274651 5.84645862 20.7193925 5.83006111 19.9045623 5.83006111 17.8440256 10.6891907 22.7103028 20.5694375 15.8576561 34.4476959 17.8001307 34.4476959 23.7052534 22.5898098 31.5266147 38.4715462 32.496843 36.5003664 19.7592551 10.636023 20.3914423 9.14583694 33.0775672 35.3227268 40.5659328 20.1172636 33.5346794 5.83006111 20.7274651 5.83006111"></polygon>
                        <polygon id="Shape" points="5.21995897 40.0009869 5.88494118 38.5112977 12.3743199 52.6126618 13.2577674 50.6807366 26.3883911 50.6807366 19.1013364 35.1955219 6.29513126 35.1955219 6.29462672 35.2114225 6.28705864 35.1955219 5.4722284 35.1955219 3.30372041 40.0536577 10.8198357 56.0119158 11.7769459 53.9199907"></polygon>
                        <path d="M43.1289902,51.8300532 L48.0689301,63.0424736 L47.8832598,63.3962624 L47.8756917,63.3962624 L46.652185,65.7560135 L46.652185,65.7560135 L45.7601603,67.4757648 L47.7369435,67.4757648 L64.5335465,67.4757648 L66.7106316,67.4757648 L67.3519005,67.4757648 L69.3276747,63.3609829 L63.9407133,51.8300532 L43.1289902,51.8300532 L43.1289902,51.8300532 Z M66.2681511,65.7560135 L48.5633782,65.7560135 L49.1546977,64.5247094 L66.9063927,64.5247094 L66.2681511,65.7560135 Z" id="Shape"></path>
                    </g>
                    <g id="Group" transform="translate(83.469510, 10.619342)" fill-rule="nonzero" fill="url(#linearGradient-1)">
                        <polygon id="Shape" points="5.68758877 34.2477882 0.198769197 34.2477882 0.198769197 1.06129648 8.75680436 1.06129648 18.5707221 21.903288 28.3841416 1.06129648 36.895349 1.06129648 36.895349 34.2477882 31.4070276 34.2477882 31.4070276 8.32510046 20.0587511 31.3512167 16.9890374 31.3512167 5.6870906 8.32510046 5.6870906 34.2477882"></polygon>
                        <polygon id="Shape" points="72.2433868 1.06129648 72.2433868 6.33065638 54.89517 6.33065638 54.89517 15.1139399 70.4758853 15.1139399 70.4758853 20.0990331 54.89517 20.0990331 54.89517 28.9774113 72.8013355 28.9774113 72.8013355 34.2472797 49.4063505 34.2472797 49.4063505 1.06078795 72.2433868 1.06078795"></polygon>
                        <path d="M93.1485261,5.42903748 C91.5509,5.42903748 90.2412153,5.7611058 89.2179773,6.42625952 C88.1947394,7.0909047 87.6831205,8.09575465 87.6831205,9.44080936 C87.6831205,10.7863726 88.1947394,11.8151233 89.2179773,12.5270616 C90.2412153,13.2389998 92.4192076,14.006876 95.7524524,14.8291647 C99.0851991,15.6524704 101.596466,16.8078444 103.28725,18.2952867 C104.977037,19.7837462 105.821931,21.9749903 105.821931,24.8710533 C105.821931,27.7671163 104.752363,30.1175295 102.613228,31.9212758 C100.473594,33.7255307 97.6669136,34.6276581 94.1951779,34.6276581 C89.1093766,34.6276581 84.5979635,32.8396761 80.6604403,29.2626951 L84.1022859,25.0368332 C87.3887029,27.9496776 90.799662,29.4045742 94.3341669,29.4045742 C96.1016685,29.4045742 97.5040125,29.0175849 98.5431918,28.2415722 C99.581873,27.4665766 100.101463,26.4373174 100.101463,25.1558286 C100.101463,23.8743398 99.6132576,22.8771177 98.6368475,22.164671 C97.6599393,21.4527328 95.9776245,20.8038519 93.5904015,20.2180285 C91.2021821,19.6332221 89.3883509,19.0952002 88.1484098,18.6039628 C86.9079704,18.113234 85.8070182,17.4724896 84.8460513,16.6812211 C82.9236194,15.1937787 81.9626526,12.9150679 81.9626526,9.84458004 C81.9626526,6.77510924 83.0556341,4.40842318 85.2415971,2.74655596 C87.4275601,1.08468874 90.1321164,0.254263651 93.3577568,0.254263651 C95.434621,0.254263651 97.4970382,0.60311338 99.543514,1.29928726 C101.589492,1.99546113 103.356993,2.97742735 104.846019,4.24264328 L101.915792,8.46850516 C100.953829,7.5826506 99.6521147,6.85393098 98.0086571,6.2843804 C96.3647014,5.71381277 94.7446577,5.42903748 93.1485261,5.42903748 Z" id="Shape"></path>
                        <path d="M143.309602,29.6659572 C140.022687,32.9418901 135.961119,34.5798565 131.123904,34.5798565 C126.287187,34.5798565 122.224624,32.9418901 118.938207,29.6659572 C115.651291,26.3905329 114.008332,22.3070586 114.008332,17.4170601 C114.008332,12.5270616 115.65179,8.44358732 118.938207,5.16765444 C122.224624,1.89223009 126.287187,0.253755124 131.123904,0.253755124 C135.961119,0.253755124 140.022687,1.89223009 143.309602,5.16765444 C146.596019,8.44358732 148.239476,12.5270616 148.239476,17.4170601 C148.239476,22.3070586 146.595521,26.3905329 143.309602,29.6659572 Z M139.286892,8.89465104 C137.069544,6.55237429 134.348548,5.38123591 131.123904,5.38123591 C127.898762,5.38123591 125.178264,6.55288281 122.961415,8.89465104 C120.744067,11.2374363 119.635642,14.0775613 119.635642,17.4170601 C119.635642,20.7565589 120.744067,23.5971924 122.961415,25.9389606 C125.177766,28.2817459 127.898762,29.4523758 131.123904,29.4523758 C134.348548,29.4523758 137.069544,28.2817459 139.286892,25.9389606 C141.503243,23.5977009 142.612166,20.7570674 142.612166,17.4170601 C142.611668,14.0780698 141.503243,11.2374363 139.286892,8.89465104 Z" id="Shape"></path>
                        <polygon id="Shape" points="158.657174 34.2477882 158.657174 1.06129648 164.145994 1.06129648 164.145994 28.9301182 178.982445 28.9301182 178.982445 34.2477882"></polygon>
                    </g>
                    <path d="M108.815643,59.2775683 C110.526976,59.2775683 111.728309,58.3935683 111.728309,56.8182349 C111.728309,55.4129016 110.821643,54.8349016 109.212309,54.4155683 C107.840976,54.0642349 107.500976,53.8942349 107.500976,53.3729016 C107.500976,52.9649016 107.852309,52.6589016 108.520976,52.6589016 C109.189643,52.6589016 109.880976,52.9535683 110.583643,53.4409016 L111.490309,52.1262349 C110.685643,51.4802349 109.699643,51.1175683 108.543643,51.1175683 C106.922976,51.1175683 105.766976,52.0695683 105.766976,53.5089016 C105.766976,55.1069016 106.798309,55.5489016 108.396309,55.9569016 C109.722309,56.2969016 109.994309,56.5235683 109.994309,56.9655683 C109.994309,57.4529016 109.563643,57.7362349 108.849643,57.7362349 C107.942976,57.7362349 107.194976,57.3622349 106.480976,56.7729016 L105.449643,58.0082349 C106.401643,58.8582349 107.614309,59.2775683 108.815643,59.2775683 Z M116.964309,59.3002349 C118.494309,59.3002349 119.400976,58.8242349 120.216976,57.9515683 L119.106309,56.7615683 C118.482976,57.3282349 117.927643,57.6909016 117.020976,57.6909016 C115.660976,57.6909016 114.720309,56.5575683 114.720309,55.1975683 C114.720309,53.8149016 115.683643,52.7042349 117.020976,52.7042349 C117.927643,52.7042349 118.448976,53.0329016 119.060976,53.5882349 L120.103643,52.3869016 C119.366976,51.6615683 118.528309,51.0949016 117.032309,51.0949016 C114.595643,51.0949016 112.895643,52.9422349 112.895643,55.1975683 C112.895643,57.4982349 114.629643,59.3002349 116.964309,59.3002349 Z M121.690309,59.1642349 L123.435643,59.1642349 L123.435643,51.2309016 L121.690309,51.2309016 L121.690309,59.1642349 Z M125.418976,59.1642349 L131.459643,59.1642349 L131.459643,57.6115683 L127.152976,57.6115683 L127.152976,55.9455683 L130.892976,55.9455683 L130.892976,54.3929016 L127.152976,54.3929016 L127.152976,52.7835683 L131.402976,52.7835683 L131.402976,51.2309016 L125.418976,51.2309016 L125.418976,59.1642349 Z M133.012309,59.1642349 L134.734976,59.1642349 L134.734976,54.1209016 L138.576976,59.1642349 L140.061643,59.1642349 L140.061643,51.2309016 L138.338976,51.2309016 L138.338976,56.1155683 L134.621643,51.2309016 L133.012309,51.2309016 L133.012309,59.1642349 Z M143.812976,59.1642349 L145.558309,59.1642349 L145.558309,52.8402349 L147.972309,52.8402349 L147.972309,51.2309016 L141.398976,51.2309016 L141.398976,52.8402349 L143.812976,52.8402349 L143.812976,59.1642349 Z M149.388976,59.1642349 L151.134309,59.1642349 L151.134309,51.2309016 L149.388976,51.2309016 L149.388976,59.1642349 Z M153.117643,59.1642349 L154.862976,59.1642349 L154.862976,56.0929016 L158.648309,56.0929016 L158.648309,54.5062349 L154.862976,54.5062349 L154.862976,52.8175683 L159.158309,52.8175683 L159.158309,51.2309016 L153.117643,51.2309016 L153.117643,59.1642349 Z M160.631643,59.1642349 L162.376976,59.1642349 L162.376976,51.2309016 L160.631643,51.2309016 L160.631643,59.1642349 Z M168.077643,59.3002349 C169.607643,59.3002349 170.514309,58.8242349 171.330309,57.9515683 L170.219643,56.7615683 C169.596309,57.3282349 169.040976,57.6909016 168.134309,57.6909016 C166.774309,57.6909016 165.833643,56.5575683 165.833643,55.1975683 C165.833643,53.8149016 166.796976,52.7042349 168.134309,52.7042349 C169.040976,52.7042349 169.562309,53.0329016 170.174309,53.5882349 L171.216976,52.3869016 C170.480309,51.6615683 169.641643,51.0949016 168.145643,51.0949016 C165.708976,51.0949016 164.008976,52.9422349 164.008976,55.1975683 C164.008976,57.4982349 165.742976,59.3002349 168.077643,59.3002349 Z M175.444309,59.1642349 L178.844309,51.1742349 L180.453643,51.1742349 L183.853643,59.1642349 L182.028976,59.1642349 L181.303643,57.3849016 L177.948976,57.3849016 L177.223643,59.1642349 L175.444309,59.1642349 Z M178.572309,55.8435683 L180.680309,55.8435683 L179.626309,53.2709016 L178.572309,55.8435683 Z M185.077643,59.1642349 L186.800309,59.1642349 L186.800309,54.1209016 L190.642309,59.1642349 L192.126976,59.1642349 L192.126976,51.2309016 L190.404309,51.2309016 L190.404309,56.1155683 L186.686976,51.2309016 L185.077643,51.2309016 L185.077643,59.1642349 Z M194.030976,59.1642349 L194.030976,51.2309016 L197.124976,51.2309016 C199.618309,51.2309016 201.340976,52.9422349 201.340976,55.1975683 C201.340976,57.4302349 199.618309,59.1642349 197.124976,59.1642349 L194.030976,59.1642349 Z M195.776309,57.5889016 L197.124976,57.5889016 C198.552976,57.5889016 199.516309,56.6255683 199.516309,55.1975683 C199.516309,53.7922349 198.552976,52.8062349 197.124976,52.8062349 L195.776309,52.8062349 L195.776309,57.5889016 Z M206.293643,59.1642349 L206.293643,51.2309016 L209.976976,51.2309016 C210.883643,51.2309016 211.597643,51.4802349 212.050976,51.9335683 C212.413643,52.2962349 212.594976,52.7382349 212.594976,53.3049016 C212.594976,54.2002349 212.118976,54.6989016 211.552309,55.0162349 C212.470309,55.3675683 213.036976,55.9002349 213.036976,56.9882349 C213.036976,58.4389016 211.858309,59.1642349 210.067643,59.1642349 L206.293643,59.1642349 Z M207.993643,54.4382349 L209.602976,54.4382349 C210.373643,54.4382349 210.860976,54.1889016 210.860976,53.5769016 C210.860976,53.0555683 210.452976,52.7609016 209.716309,52.7609016 L207.993643,52.7609016 L207.993643,54.4382349 Z M207.993643,57.6342349 L210.067643,57.6342349 C210.838309,57.6342349 211.302976,57.3622349 211.302976,56.7502349 C211.302976,56.2175683 210.906309,55.8889016 210.010976,55.8889016 L207.993643,55.8889016 L207.993643,57.6342349 Z M217.785643,59.2889016 C219.916309,59.2889016 221.264976,58.1102349 221.264976,55.7075683 L221.264976,51.2309016 L219.519643,51.2309016 L219.519643,55.7755683 C219.519643,57.0335683 218.873643,57.6795683 217.808309,57.6795683 C216.742976,57.6795683 216.096976,57.0109016 216.096976,55.7189016 L216.096976,51.2309016 L214.351643,51.2309016 L214.351643,55.7642349 C214.351643,58.0989016 215.654976,59.2889016 217.785643,59.2889016 Z M225.866309,59.2775683 C227.577643,59.2775683 228.778976,58.3935683 228.778976,56.8182349 C228.778976,55.4129016 227.872309,54.8349016 226.262976,54.4155683 C224.891643,54.0642349 224.551643,53.8942349 224.551643,53.3729016 C224.551643,52.9649016 224.902976,52.6589016 225.571643,52.6589016 C226.240309,52.6589016 226.931643,52.9535683 227.634309,53.4409016 L228.540976,52.1262349 C227.736309,51.4802349 226.750309,51.1175683 225.594309,51.1175683 C223.973643,51.1175683 222.817643,52.0695683 222.817643,53.5089016 C222.817643,55.1069016 223.848976,55.5489016 225.446976,55.9569016 C226.772976,56.2969016 227.044976,56.5235683 227.044976,56.9655683 C227.044976,57.4529016 226.614309,57.7362349 225.900309,57.7362349 C224.993643,57.7362349 224.245643,57.3622349 223.531643,56.7729016 L222.500309,58.0082349 C223.452309,58.8582349 224.664976,59.2775683 225.866309,59.2775683 Z M230.376976,59.1642349 L232.122309,59.1642349 L232.122309,51.2309016 L230.376976,51.2309016 L230.376976,59.1642349 Z M234.105643,59.1642349 L235.828309,59.1642349 L235.828309,54.1209016 L239.670309,59.1642349 L241.154976,59.1642349 L241.154976,51.2309016 L239.432309,51.2309016 L239.432309,56.1155683 L235.714976,51.2309016 L234.105643,51.2309016 L234.105643,59.1642349 Z M243.058976,59.1642349 L249.099643,59.1642349 L249.099643,57.6115683 L244.792976,57.6115683 L244.792976,55.9455683 L248.532976,55.9455683 L248.532976,54.3929016 L244.792976,54.3929016 L244.792976,52.7835683 L249.042976,52.7835683 L249.042976,51.2309016 L243.058976,51.2309016 L243.058976,59.1642349 Z M253.474309,59.2775683 C255.185643,59.2775683 256.386976,58.3935683 256.386976,56.8182349 C256.386976,55.4129016 255.480309,54.8349016 253.870976,54.4155683 C252.499643,54.0642349 252.159643,53.8942349 252.159643,53.3729016 C252.159643,52.9649016 252.510976,52.6589016 253.179643,52.6589016 C253.848309,52.6589016 254.539643,52.9535683 255.242309,53.4409016 L256.148976,52.1262349 C255.344309,51.4802349 254.358309,51.1175683 253.202309,51.1175683 C251.581643,51.1175683 250.425643,52.0695683 250.425643,53.5089016 C250.425643,55.1069016 251.456976,55.5489016 253.054976,55.9569016 C254.380976,56.2969016 254.652976,56.5235683 254.652976,56.9655683 C254.652976,57.4529016 254.222309,57.7362349 253.508309,57.7362349 C252.601643,57.7362349 251.853643,57.3622349 251.139643,56.7729016 L250.108309,58.0082349 C251.060309,58.8582349 252.272976,59.2775683 253.474309,59.2775683 Z M260.727643,59.2775683 C262.438976,59.2775683 263.640309,58.3935683 263.640309,56.8182349 C263.640309,55.4129016 262.733643,54.8349016 261.124309,54.4155683 C259.752976,54.0642349 259.412976,53.8942349 259.412976,53.3729016 C259.412976,52.9649016 259.764309,52.6589016 260.432976,52.6589016 C261.101643,52.6589016 261.792976,52.9535683 262.495643,53.4409016 L263.402309,52.1262349 C262.597643,51.4802349 261.611643,51.1175683 260.455643,51.1175683 C258.834976,51.1175683 257.678976,52.0695683 257.678976,53.5089016 C257.678976,55.1069016 258.710309,55.5489016 260.308309,55.9569016 C261.634309,56.2969016 261.906309,56.5235683 261.906309,56.9655683 C261.906309,57.4529016 261.475643,57.7362349 260.761643,57.7362349 C259.854976,57.7362349 259.106976,57.3622349 258.392976,56.7729016 L257.361643,58.0082349 C258.313643,58.8582349 259.526309,59.2775683 260.727643,59.2775683 Z M134.870976,72.4975683 L140.911643,72.4975683 L140.911643,70.9449016 L136.604976,70.9449016 L136.604976,69.2789016 L140.344976,69.2789016 L140.344976,67.7262349 L136.604976,67.7262349 L136.604976,66.1169016 L140.854976,66.1169016 L140.854976,64.5642349 L134.870976,64.5642349 L134.870976,72.4975683 Z M144.991643,72.5542349 L146.532976,72.5542349 L149.740309,64.5642349 L147.858976,64.5642349 L145.784976,70.1515683 L143.710976,64.5642349 L141.784309,64.5642349 L144.991643,72.5542349 Z M150.964309,72.4975683 L157.004976,72.4975683 L157.004976,70.9449016 L152.698309,70.9449016 L152.698309,69.2789016 L156.438309,69.2789016 L156.438309,67.7262349 L152.698309,67.7262349 L152.698309,66.1169016 L156.948309,66.1169016 L156.948309,64.5642349 L150.964309,64.5642349 L150.964309,72.4975683 Z M158.557643,72.4975683 L160.280309,72.4975683 L160.280309,67.4542349 L164.122309,72.4975683 L165.606976,72.4975683 L165.606976,64.5642349 L163.884309,64.5642349 L163.884309,69.4489016 L160.166976,64.5642349 L158.557643,64.5642349 L158.557643,72.4975683 Z M169.358309,72.4975683 L171.103643,72.4975683 L171.103643,66.1735683 L173.517643,66.1735683 L173.517643,64.5642349 L166.944309,64.5642349 L166.944309,66.1735683 L169.358309,66.1735683 L169.358309,72.4975683 Z M178.254976,72.4975683 L179.966309,72.4975683 L179.966309,67.3522349 L182.176309,70.7069016 L182.221643,70.7069016 L184.454309,67.3182349 L184.454309,72.4975683 L186.188309,72.4975683 L186.188309,64.5642349 L184.306976,64.5642349 L182.221643,67.9189016 L180.136309,64.5642349 L178.254976,64.5642349 L178.254976,72.4975683 Z M187.412309,72.4975683 L190.812309,64.5075683 L192.421643,64.5075683 L195.821643,72.4975683 L193.996976,72.4975683 L193.271643,70.7182349 L189.916976,70.7182349 L189.191643,72.4975683 L187.412309,72.4975683 Z M190.540309,69.1769016 L192.648309,69.1769016 L191.594309,66.6042349 L190.540309,69.1769016 Z M197.045643,72.4975683 L198.768309,72.4975683 L198.768309,67.4542349 L202.610309,72.4975683 L204.094976,72.4975683 L204.094976,64.5642349 L202.372309,64.5642349 L202.372309,69.4489016 L198.654976,64.5642349 L197.045643,64.5642349 L197.045643,72.4975683 Z M205.318976,72.4975683 L208.718976,64.5075683 L210.328309,64.5075683 L213.728309,72.4975683 L211.903643,72.4975683 L211.178309,70.7182349 L207.823643,70.7182349 L207.098309,72.4975683 L205.318976,72.4975683 Z M208.446976,69.1769016 L210.554976,69.1769016 L209.500976,66.6042349 L208.446976,69.1769016 Z M218.771643,72.6335683 C220.222309,72.6335683 221.344309,72.0669016 222.160309,71.3755683 L222.160309,67.9302349 L218.714976,67.9302349 L218.714976,69.4375683 L220.471643,69.4375683 L220.471643,70.5709016 C220.029643,70.8882349 219.462976,71.0469016 218.828309,71.0469016 C217.422976,71.0469016 216.425643,69.9815683 216.425643,68.5309016 C216.425643,67.1595683 217.434309,66.0375683 218.703643,66.0375683 C219.621643,66.0375683 220.165643,66.3322349 220.777643,66.8422349 L221.876976,65.5162349 C221.049643,64.8135683 220.188309,64.4282349 218.760309,64.4282349 C216.357643,64.4282349 214.600976,66.2755683 214.600976,68.5309016 C214.600976,70.8995683 216.300976,72.6335683 218.771643,72.6335683 Z M223.837643,72.4975683 L229.878309,72.4975683 L229.878309,70.9449016 L225.571643,70.9449016 L225.571643,69.2789016 L229.311643,69.2789016 L229.311643,67.7262349 L225.571643,67.7262349 L225.571643,66.1169016 L229.821643,66.1169016 L229.821643,64.5642349 L223.837643,64.5642349 L223.837643,72.4975683 Z M231.430976,72.4975683 L233.142309,72.4975683 L233.142309,67.3522349 L235.352309,70.7069016 L235.397643,70.7069016 L237.630309,67.3182349 L237.630309,72.4975683 L239.364309,72.4975683 L239.364309,64.5642349 L237.482976,64.5642349 L235.397643,67.9189016 L233.312309,64.5642349 L231.430976,64.5642349 L231.430976,72.4975683 Z M241.268309,72.4975683 L247.308976,72.4975683 L247.308976,70.9449016 L243.002309,70.9449016 L243.002309,69.2789016 L246.742309,69.2789016 L246.742309,67.7262349 L243.002309,67.7262349 L243.002309,66.1169016 L247.252309,66.1169016 L247.252309,64.5642349 L241.268309,64.5642349 L241.268309,72.4975683 Z M248.861643,72.4975683 L250.584309,72.4975683 L250.584309,67.4542349 L254.426309,72.4975683 L255.910976,72.4975683 L255.910976,64.5642349 L254.188309,64.5642349 L254.188309,69.4489016 L250.470976,64.5642349 L248.861643,64.5642349 L248.861643,72.4975683 Z M259.662309,72.4975683 L261.407643,72.4975683 L261.407643,66.1735683 L263.821643,66.1735683 L263.821643,64.5642349 L257.248309,64.5642349 L257.248309,66.1735683 L259.662309,66.1735683 L259.662309,72.4975683 Z" id="scientific-and-busin" fill="#192F4F"></path>
                </g>
            </g>
        </g>
    </g>
</svg>