<?xml version="1.0" encoding="UTF-8"?>
<svg width="264px" height="75px" viewBox="0 0 264 75" version="1.1" xmlns="http://www.w3.org/2000/svg" xmlns:xlink="http://www.w3.org/1999/xlink">
    <!-- Generator: sketchtool 47.1 (45422) - http://www.bohemiancoding.com/sketch -->
    <title>9D1409E1-6059-488A-9D04-55B959F04169</title>
    <desc>Created with sketchtool.</desc>
    <defs>
        <linearGradient x1="100%" y1="100%" x2="0%" y2="0%" id="linearGradient-1">
            <stop stop-color="#16B0FD" offset="0%"></stop>
            <stop stop-color="#1681FD" offset="100%"></stop>
        </linearGradient>
    </defs>
    <g id="Symbols" stroke="none" stroke-width="1" fill="none" fill-rule="evenodd">
        <g id="logo2" fill-rule="nonzero">
            <g id="Group">
                <g fill="url(#linearGradient-1)">
                    <path d="M85.0985882,63.2365741 L85.1725686,63.2013834 L73.7972026,39.9730882 L61.0227516,39.9730882 L61.0227516,39.9884532 L61.0146993,39.9730882 L60.2014183,39.9730882 L58.1465752,44.8189869 L60.8773072,50.3919935 L62.8133791,50.3919935 L60.0569804,44.7659532 L60.6875752,43.2800163 L70.727268,64.2060512 L69.1857582,67.3464434 L83.1504379,67.3464434 L85.1745817,63.2365741 L85.0985882,63.2365741 Z M82.1081699,65.5903813 L72.0840784,65.5903813 L72.6734052,64.3621786 L82.7448039,64.3621786 L82.1081699,65.5903813 Z" id="Shape"></path>
                    <path d="M50.1622288,16.925207 L50.1546797,16.9093464 L49.3413987,16.9093464 L47.2865556,21.7552451 L57.6272026,42.7184532 L58.044915,41.866939 L58.044915,41.866939 L58.2829608,41.3822004 L58.5934771,40.750256 L58.5934771,40.750256 L59.6448039,38.6085839 L60.2603007,38.6085839 L60.6286928,38.6085839 L71.694549,38.6085839 L73.0357582,38.6085839 L73.5400327,38.6085839 L73.6135098,38.5733932 L62.937183,16.9093464 L50.1622288,16.9093464 L50.1622288,16.925207 L50.1622288,16.925207 Z M49.1969608,21.7022113 L49.8275556,20.2162745 L58.2286078,37.6311765 L57.6397843,38.8177451 L49.1969608,21.7022113 Z" id="Shape"></path>
                    <path d="M41.0319412,51.6994989 L14.1901438,51.6994989 L14.1896405,51.7153595 L14.1820915,51.6994989 L13.3688105,51.6994989 L11.1549346,56.5458932 L13.0200458,60.5259041 L12.9802876,60.5140087 L13.1695163,60.9164706 L13.2022288,60.9164706 L16.1377908,67.18189 L16.1377908,67.3062963 L16.1961699,67.3062963 L16.2152941,67.346939 L16.3013529,67.3062963 L42.462732,67.3062963 L43.7938758,67.3062963 L44.4340327,67.3062963 L46.4048301,63.2018791 L41.0319412,51.6994989 Z M17.3350654,65.5903813 L13.0673529,56.4933551 L13.7462614,55.0069227 L17.9440196,64.3924129 L18.0089412,64.3621786 L43.9896471,64.3621786 L43.3525098,65.5903813 L17.3350654,65.5903813 L17.3350654,65.5903813 Z" id="Shape"></path>
                    <path d="M32.4577647,4.55396514 L30.4341242,0.444095861 L16.4694444,0.444095861 L0.268745098,33.2348257 L2.32308497,38.0807244 L3.13636601,38.0807244 L19.4694248,4.55396514 L32.4577647,4.55396514 Z M2.80873856,34.7742919 L2.17814379,33.2878595 L17.4347124,2.41130174 L18.0099477,3.58300109 L2.80873856,34.7742919 Z" id="Shape"></path>
                    <path d="M34.1487451,44.4080991 L34.9615229,44.4080991 L34.9700784,44.3912473 L34.9700784,44.4080991 L47.7450327,44.4080991 L52.619183,34.503671 L51.6136536,32.614281 L46.6539477,42.6926797 L35.7939281,42.6926797 L49.1582092,15.117598 L62.1455425,15.117598 L60.121902,11.0077288 L46.1572222,11.0077288 L32.0954118,39.5622004 L34.1487451,44.4080991 Z M47.1234967,12.9764216 L47.6982288,14.1461383 L34.634902,41.101171 L34.0043072,39.6147386 L47.1234967,12.9764216 Z" id="Shape"></path>
                    <polygon id="Shape" points="20.6752549 5.83173203 20.6672026 5.81537582 19.8544248 5.81537582 17.7990784 10.6622658 22.653098 20.5176253 15.8177124 34.3609259 17.7552941 34.3609259 23.6455425 22.5329085 31.4472026 38.3746405 32.4149869 36.4084259 19.7094837 10.609232 20.3400784 9.12279956 32.9942484 35.2337527 40.4637516 20.0665904 33.4502092 5.81537582 20.6752549 5.81537582"></polygon>
                    <polygon id="Shape" points="5.20681046 39.9002288 5.87011765 38.4142919 12.3431503 52.4801362 13.2243725 50.5530773 26.3219216 50.5530773 19.0532222 35.1068682 6.27927451 35.1068682 6.27877124 35.1227288 6.27122222 35.1068682 5.45844444 35.1068682 3.29539869 39.9527669 10.7925817 55.8708279 11.747281 53.7841721"></polygon>
                    <path d="M43.0203529,51.6994989 L47.9478497,62.8836765 L47.7626471,63.2365741 L47.755098,63.2365741 L46.5346732,65.5903813 L46.5346732,65.5903813 L45.6448954,67.3058007 L47.6166993,67.3058007 L64.3709935,67.3058007 L66.5425948,67.3058007 L67.1822484,67.3058007 L69.1530458,63.2013834 L63.7796536,51.6994989 L43.0203529,51.6994989 L43.0203529,51.6994989 Z M66.1012288,65.5903813 L48.4410523,65.5903813 L49.0308824,64.3621786 L66.7378627,64.3621786 L66.1012288,65.5903813 Z" id="Shape"></path>
                </g>
                <g transform="translate(83.259259, 10.592593)" fill="url(#linearGradient-1)">
                    <polygon id="Shape" points="5.67326235 34.1615217 0.198268519 34.1615217 0.198268519 1.05862319 8.73474691 1.05862319 18.5239444 21.8481159 28.3126451 1.05862319 36.8024136 1.05862319 36.8024136 34.1615217 31.3279167 34.1615217 31.3279167 8.30413043 20.0082253 31.2722464 16.9462438 31.2722464 5.67276543 8.30413043 5.67276543 34.1615217"></polygon>
                    <polygon id="Shape" points="72.0614136 1.05862319 72.0614136 6.31471014 54.7568951 6.31471014 54.7568951 15.0758696 70.2983642 15.0758696 70.2983642 20.0484058 54.7568951 20.0484058 54.7568951 28.9044203 72.6179568 28.9044203 72.6179568 34.1610145 49.2819012 34.1610145 49.2819012 1.05811594 72.0614136 1.05811594"></polygon>
                    <path d="M92.9138951,5.41536232 C91.3202932,5.41536232 90.0139074,5.7465942 88.9932469,6.41007246 C87.9725864,7.07304348 87.4622562,8.07536232 87.4622562,9.41702899 C87.4622562,10.7592029 87.9725864,11.7853623 88.9932469,12.4955072 C90.0139074,13.2056522 92.1864136,13.9715942 95.5112623,14.7918116 C98.8356142,15.6130435 101.340556,16.7655072 103.02708,18.2492029 C104.712611,19.733913 105.555377,21.9196377 105.555377,24.8084058 C105.555377,27.6971739 104.488503,30.0416667 102.354756,31.8408696 C100.220512,33.6405797 97.4209012,34.5404348 93.9579105,34.5404348 C88.8849198,34.5404348 84.3848704,32.7569565 80.4572654,29.1889855 L83.8904414,24.9737681 C87.1685802,27.8792754 90.5709475,29.3305072 94.0965494,29.3305072 C95.8595988,29.3305072 97.2584105,28.9444928 98.2949722,28.1704348 C99.331037,27.3973913 99.8493179,26.3707246 99.8493179,25.0924638 C99.8493179,23.8142029 99.3623426,22.8194928 98.388392,22.1088406 C97.4139444,21.3986957 95.7358673,20.7514493 93.3546574,20.1671014 C90.9724537,19.5837681 89.1631914,19.0471014 87.9263735,18.5571014 C86.6890586,18.0676087 85.5908796,17.4284783 84.6323333,16.6392029 C82.7147438,15.1555072 81.7561975,12.8825362 81.7561975,9.81978261 C81.7561975,6.75804348 82.8464259,4.39731884 85.0268827,2.73963768 C87.2073395,1.08195652 89.9050833,0.253623188 93.1225988,0.253623188 C95.1942315,0.253623188 97.2514537,0.601594203 99.2927747,1.29601449 C101.333599,1.99043478 103.096648,2.96992754 104.581923,4.23195652 L101.659077,8.44717391 C100.699537,7.56355072 99.4011019,6.83666667 97.761784,6.26855072 C96.1219691,5.69942029 94.5060062,5.41536232 92.9138951,5.41536232 Z" id="Shape"></path>
                    <path d="M142.94862,29.5912319 C139.669985,32.858913 135.618648,34.4927536 130.793617,34.4927536 C125.969083,34.4927536 121.916753,32.858913 118.638614,29.5912319 C115.359978,26.324058 113.721157,22.2508696 113.721157,17.3731884 C113.721157,12.4955072 115.360475,8.42231884 118.638614,5.15463768 C121.916753,1.88746377 125.969083,0.253115942 130.793617,0.253115942 C135.618648,0.253115942 139.669985,1.88746377 142.94862,5.15463768 C146.226759,8.42231884 147.866077,12.4955072 147.866077,17.3731884 C147.866077,22.2508696 146.226262,26.324058 142.94862,29.5912319 Z M138.936043,8.87224638 C136.724281,6.53586957 134.010139,5.36768116 130.793617,5.36768116 C127.576599,5.36768116 124.862954,6.53637681 122.651688,8.87224638 C120.439926,11.2091304 119.334293,14.0421014 119.334293,17.3731884 C119.334293,20.7042754 120.439926,23.5377536 122.651688,25.8736232 C124.862457,28.2105072 127.576599,29.3781884 130.793617,29.3781884 C134.010139,29.3781884 136.724281,28.2105072 138.936043,25.8736232 C141.146812,23.5382609 142.252941,20.7047826 142.252941,17.3731884 C142.252444,14.0426087 141.146812,11.2091304 138.936043,8.87224638 Z" id="Shape"></path>
                    <polygon id="Shape" points="158.257534 34.1615217 158.257534 1.05862319 163.732528 1.05862319 163.732528 28.8572464 178.531608 28.8572464 178.531608 34.1615217"></polygon>
                </g>
                <g transform="translate(89.444444, 50.370370)" fill="#192F4F">
                    <path d="M7.97313458,1.69054097 C8.7505058,2.49450413 9.186225,3.58838358 9.186225,4.78017672 C9.186225,5.97196986 8.76405147,7.02530693 8.02806982,7.80020196 C7.2506986,8.60416511 6.17381747,9.08837888 4.87870047,9.08837888 C3.58358347,9.08837888 2.43897397,8.52078548 1.68944664,7.70305322 C1.00840022,6.95493147 0.558382809,5.88859024 0.558382809,4.78017672 C0.558382809,3.63045587 0.981308872,2.5771188 1.70299231,1.80069387 C2.46606532,0.983726558 3.58358347,0.471209611 4.87870047,0.471209611 C6.14672612,0.471209611 7.22360726,0.92865011 7.97313458,1.69054097 Z M2.79417166,6.84401362 C3.29837177,7.41237197 4.0478991,7.75889462 4.87945301,7.75889462 C5.69746125,7.75889462 6.44698858,7.42537613 6.96473436,6.85778273 C7.42754491,6.34526579 7.7285599,5.62468226 7.7285599,4.77941177 C7.7285599,3.92037217 7.41475177,3.18601953 6.95118869,2.68727169 C6.41989723,2.13268246 5.6703699,1.80069387 4.87945301,1.80069387 C4.07574298,1.80069387 3.31191744,2.13344741 2.79417166,2.70180576 C2.31631036,3.2143227 2.01680044,3.93490623 2.01680044,4.78017672 C2.01680044,5.6116781 2.31631036,6.33149667 2.79417166,6.84401362 Z" id="Shape"></path>
                    <path d="M16.4406863,5.80521061 C15.8680053,6.35979985 15.0913866,6.67878428 14.246287,6.67878428 L11.7651709,6.67878428 L11.7651709,8.93691865 L10.279662,8.93691865 L10.279662,0.624199745 L14.246287,0.624199745 C15.2005045,0.624199745 16.0726955,1.03956796 16.6453765,1.73261326 C17.0683025,2.25889932 17.3271754,2.89610323 17.3271754,3.6717632 C17.3264229,4.51703369 16.9719778,5.27892456 16.4406863,5.80521061 Z M15.4450792,4.80771494 C15.6633151,4.48873052 15.8537071,4.04582408 15.8537071,3.6717632 C15.8537071,3.22885677 15.7174978,2.82725767 15.4450792,2.53581146 C15.159115,2.19005376 14.7098501,1.98122223 14.1913518,1.98122223 L11.7644184,1.98122223 L11.7644184,5.33476595 L14.2997172,5.33476595 C14.7504871,5.33476595 15.1869589,5.11293026 15.4450792,4.80771494 Z" id="Shape"></path>
                    <polygon id="Shape" points="19.8639793 8.93691865 18.4055616 8.93691865 18.4055616 0.624199745 24.6207687 0.624199745 24.6207687 1.953684 19.8639793 1.953684"></polygon>
                    <path d="M29.2706978,0.623434794 L32.8964233,8.9361537 L31.3288878,8.9361537 L30.6470888,7.41237197 L26.2853816,7.41237197 L25.6171283,8.9361537 L24.0774366,8.9361537 L27.7024097,0.623434794 L29.2706978,0.623434794 Z M26.8452695,6.06911859 L30.1022517,6.06911859 L28.5347161,2.12044325 L28.3714155,2.12044325 L26.8452695,6.06911859 Z" id="Shape"></path>
                    <polygon id="Shape" points="41.132946 0.623434794 41.132946 8.9361537 39.6880741 8.9361537 39.6880741 5.1542376 35.3805495 5.1542376 35.3805495 8.9361537 33.9221319 8.9361537 33.9221319 0.623434794 35.3805495 0.623434794 35.3805495 3.8377575 39.6880741 3.8377575 39.6880741 0.623434794"></polygon>
                    <polygon id="Shape" points="43.9030365 6.67878428 48.5777993 0.624199745 49.9135533 0.624199745 49.9135533 8.93691865 48.5228641 8.93691865 48.5228641 2.86780005 43.8202574 8.93691865 42.4852559 8.93691865 42.4852559 0.624199745 43.9030365 0.624199745"></polygon>
                    <path d="M56.4041891,7.24637767 C56.7586342,6.98323464 56.8948435,6.63671199 56.8948435,6.19380555 C56.8948435,5.86105201 56.7721799,5.58413987 56.5674897,5.3898424 C56.3492538,5.18254077 56.0219,5.07085797 55.6403635,5.07085797 L52.6422542,5.07085797 L52.6422542,3.75437788 L55.4093345,3.75437788 C55.7366883,3.75437788 55.9820156,3.65799409 56.1460687,3.49123485 C56.2958237,3.32524055 56.3778503,3.10340486 56.3778503,2.81195865 C56.3778503,2.5212774 56.2280953,2.28490764 56.0234051,2.13268246 C55.5869334,1.85653527 54.8780431,1.7723907 54.4287782,1.7723907 C53.6792509,1.7723907 52.888334,1.92461588 51.9890517,2.42412866 L51.4163707,1.32948426 C52.3570425,0.747356802 53.2841687,0.47044466 54.5100522,0.47044466 C55.3009691,0.47044466 56.3364607,0.622669843 57.0182597,1.13518679 C57.4953684,1.49547855 57.8355154,2.03629868 57.8355154,2.77065132 C57.8355154,3.11640902 57.767787,3.40785522 57.6315777,3.65722914 C57.5089141,3.87829988 57.3456135,4.05806329 57.1409233,4.19728431 L57.1409233,4.25236076 C57.496121,4.45966239 57.8227222,4.72357037 58.0274124,5.00124746 C58.2456483,5.31946694 58.3683119,5.70806188 58.3683119,6.1930406 C58.3683119,6.98246969 58.0545038,7.74436056 57.3862505,8.28441573 C56.7864781,8.76939445 55.8736502,9.08837888 54.5649875,9.08837888 C53.1885964,9.08837888 52.084624,8.83900496 51.0626781,8.13219054 L51.6759961,6.94039741 C52.7122402,7.53629397 53.4753132,7.72982649 54.56574,7.72982649 C55.3822432,7.73059144 55.9955612,7.5653621 56.4041891,7.24637767 Z" id="Shape"></path>
                    <path d="M64.1079152,0.623434794 L67.7336408,8.9361537 L66.1661053,8.9361537 L65.4843063,7.41237197 L61.1225991,7.41237197 L60.4543458,8.9361537 L58.9146541,8.9361537 L62.5396271,0.623434794 L64.1079152,0.623434794 Z M61.682487,6.06911859 L64.9394692,6.06911859 L63.3719336,2.12044325 L63.208633,2.12044325 L61.682487,6.06911859 Z" id="Shape"></path>
                    <polygon id="Shape" points="74.4560581 7.60590449 74.4560581 0.623434794 75.9144757 0.623434794 75.9144757 7.60590449 76.6647556 7.60590449 76.6647556 10.5716182 75.437367 10.5716182 75.287612 8.9361537 68.7458037 8.9361537 68.7458037 0.623434794 70.2042214 0.623434794 70.2042214 7.60590449"></polygon>
                    <polygon id="Shape" points="79.1074923 6.67878428 83.7822551 0.624199745 85.1180091 0.624199745 85.1180091 8.93691865 83.7273198 8.93691865 83.7273198 2.86780005 79.0247131 8.93691865 77.6897117 8.93691865 77.6897117 0.624199745 79.1074923 0.624199745"></polygon>
                    <path d="M87.043,1.59339224 C87.6284741,0.998260621 88.4464824,0.623434794 89.3871542,0.623434794 L93.3394811,0.623434794 L93.3394811,8.9361537 L91.8946091,8.9361537 L91.8946091,6.69102349 L89.3186733,6.69102349 C88.8551102,7.41160702 88.3238188,8.20180106 87.8602557,8.9361537 L86.1828496,8.9361537 L87.9001402,6.37280401 C87.4373296,6.10889603 87.0550406,5.79067655 86.7690763,5.38907745 C86.4146312,4.89032962 86.2377849,4.30820216 86.2377849,3.67099825 C86.2392899,2.84026183 86.5387999,2.1196783 87.043,1.59339224 Z M88.0243088,4.68302799 C88.2839343,5.07085797 88.761043,5.36230418 89.3879068,5.36230418 L91.8953616,5.36230418 L91.8953616,1.953684 L89.3879068,1.953684 C88.8287714,1.953684 88.338117,2.24513021 88.0656984,2.61919109 C87.8474625,2.89610323 87.7247989,3.2701641 87.7247989,3.6717632 C87.7240464,4.04582408 87.84671,4.41988496 88.0243088,4.68302799 Z" id="Shape"></path>
                    <polygon id="Shape" points="106.006192 0.623434794 106.006192 8.9361537 104.56132 8.9361537 104.56132 5.1542376 100.253795 5.1542376 100.253795 8.9361537 98.7953778 8.9361537 98.7953778 0.623434794 100.253795 0.623434794 100.253795 3.8377575 104.56132 3.8377575 104.56132 0.623434794"></polygon>
                    <path d="M112.224409,0.623434794 L115.849382,8.9361537 L114.282599,8.9361537 L113.6008,7.41237197 L109.239093,7.41237197 L108.57084,8.9361537 L107.031148,8.9361537 L110.656121,0.623434794 L112.224409,0.623434794 Z M109.798228,6.06911859 L113.05521,6.06911859 L111.488427,2.12044325 L111.324374,2.12044325 L109.798228,6.06911859 Z" id="Shape"></path>
                    <path d="M124.19427,0.623434794 L120.62348,7.46744841 C120.390946,7.9111198 120.105734,8.31195395 119.77838,8.58963104 C119.47887,8.83900496 119.055944,9.00576421 118.550992,9.00576421 C118.278573,9.00576421 118.006155,8.99199509 117.638164,8.92238458 L117.787919,7.71758728 L118.265027,7.71758728 C118.510355,7.71758728 118.715045,7.675515 118.891891,7.5653621 C119.014555,7.48274743 119.150764,7.35806047 119.219245,7.19130122 L119.314817,6.99700375 C118.142364,4.94693597 116.861545,2.68803665 115.689844,0.624199745 L117.393589,0.624199745 L120.051551,5.55660165 L120.132825,5.55660165 L122.559006,0.624199745 L124.19427,0.624199745 L124.19427,0.623434794 Z" id="Shape"></path>
                    <path d="M131.040104,8.93691865 L131.040104,6.45694858 C130.37185,6.80347124 129.513958,7.01153782 128.791522,7.01153782 C127.674004,7.01153782 126.773969,6.73462568 126.160651,6.16703228 C125.506696,5.54359749 125.138705,4.54610182 125.138705,3.24339083 L125.138705,0.624964695 L126.583577,0.624964695 L126.583577,3.17454527 C126.583577,3.99151258 126.774721,4.62871649 127.21044,5.07238788 C127.578431,5.46098281 128.136814,5.66828445 128.873548,5.66828445 C129.664465,5.66828445 130.399694,5.48852104 131.040856,5.11369521 L131.040856,0.624964695 L132.499274,0.624964695 L132.499274,8.9376836 L131.040104,8.9376836 L131.040104,8.93691865 Z" id="Shape"></path>
                    <polygon id="Shape" points="141.074438 0.623434794 141.074438 8.9361537 139.629566 8.9361537 139.629566 5.1542376 135.322042 5.1542376 135.322042 8.9361537 133.862872 8.9361537 133.862872 0.623434794 135.322042 0.623434794 135.322042 3.8377575 139.629566 3.8377575 139.629566 0.623434794"></polygon>
                    <path d="M148.532837,8.04957587 C147.973702,8.61716927 147.183538,8.9361537 146.338438,8.9361537 L142.426748,8.9361537 L142.426748,0.623434794 L143.885166,0.623434794 L143.885166,2.85403094 L146.339191,2.85403094 C147.238473,2.85403094 148.02939,3.22809182 148.602071,3.82398839 C149.091973,4.35027445 149.392235,5.05708886 149.392235,5.87482113 C149.391483,6.76139895 149.064129,7.49575159 148.532837,8.04957587 Z M147.496593,4.72510027 C147.210629,4.42064991 146.788455,4.18428015 146.269957,4.18428015 L143.884413,4.18428015 L143.884413,7.60666944 L146.351231,7.60666944 C146.801249,7.60666944 147.183538,7.41313692 147.455956,7.13622478 C147.78331,6.84477857 147.933065,6.37433391 147.933065,5.87558608 C147.933065,5.44491885 147.78331,5.02955064 147.496593,4.72510027 Z M151.640065,8.93691865 L150.195945,8.93691865 L150.195945,0.624199745 L151.640065,0.624199745 L151.640065,8.93691865 Z" id="Shape"></path>
                    <polygon id="Shape" points="156.795699 3.69930143 158.826045 0.624199745 160.543335 0.624199745 157.749164 4.62795154 160.869937 8.93691865 159.043528 8.93691865 156.726465 5.58413987 154.409403 8.93691865 152.719203 8.93691865 155.758702 4.64172065 152.828321 0.624199745 154.65473 0.624199745"></polygon>
                    <polygon id="Shape" points="167.459155 6.67878428 172.133918 0.624199745 173.469672 0.624199745 173.469672 8.93691865 172.078982 8.93691865 172.078982 2.86780005 167.376376 8.93691865 166.041374 8.93691865 166.041374 0.624199745 167.459155 0.624199745"></polygon>
                    <path d="M19.5080291,14.2548557 L19.5080291,21.2380903 L20.3117391,21.2380903 L20.3117391,24.1885051 L19.085103,24.1885051 L18.9082567,22.5675746 L12.7878694,22.5675746 L12.6381144,24.1885051 L11.4257765,24.1885051 L11.4257765,21.2380903 C12.0797316,21.2380903 12.3799941,21.0162546 12.5839317,20.7668807 C12.8021676,20.4754345 12.9519225,20.0325281 13.0204035,19.5475494 L13.7563851,14.2548557 L19.5080291,14.2548557 Z M15.00936,15.5843399 L14.3967945,19.8519997 C14.3155205,20.406589 14.20565,20.8219572 13.9061401,21.2380903 L18.0631571,21.2380903 L18.0631571,15.5843399 L15.00936,15.5843399 Z" id="Shape"></path>
                    <polygon id="Shape" points="21.3509933 14.2548557 27.7024097 14.2548557 27.7024097 15.6118782 22.8229566 15.6118782 22.8229566 17.538024 27.1846639 17.538024 27.1846639 18.8828072 22.8229566 18.8828072 22.8229566 21.2243212 27.8935542 21.2243212 27.8935542 22.5683395 21.3509933 22.5683395 21.3509933 14.2548557"></polygon>
                    <path d="M37.2332968,14.2548557 L37.2332968,22.5675746 L35.8019705,22.5675746 L35.8019705,15.5843399 L32.6947433,15.5843399 L31.985853,20.7385775 C31.9045789,21.3612474 31.6727974,21.8469911 31.3589893,22.1522064 C31.0180898,22.4566567 30.5281879,22.622651 29.9284155,22.622651 C29.4505542,22.622651 29.123953,22.5813437 28.6468442,22.4008153 L28.9192628,21.181484 C29.2601622,21.2648636 29.4648524,21.2786327 29.6830883,21.2786327 C29.9284155,21.2786327 30.1729902,21.2090222 30.3234977,21.056797 C30.4875509,20.8770336 30.5831231,20.6276597 30.6230076,20.3499826 L31.4410158,14.2540907 L37.2332968,14.2540907 L37.2332968,14.2548557 Z" id="Shape"></path>
                    <path d="M45.740733,15.3211969 C46.5181042,16.1251601 46.9538234,17.2190395 46.9538234,18.4108327 C46.9538234,19.6026258 46.5316499,20.6559629 45.7956682,21.4308579 C45.018297,22.234821 43.9414159,22.7197998 42.6462989,22.7197998 C41.3511819,22.7197998 40.2065724,22.1522064 39.4570451,21.3337092 C38.7759986,20.5863524 38.3259812,19.5192462 38.3259812,18.4108327 C38.3259812,17.2611118 38.7489073,16.2077747 39.4705907,15.4313498 C40.2336637,14.6143825 41.3511819,14.1018656 42.6462989,14.1018656 C43.9143246,14.1018656 44.9912057,14.5593061 45.740733,15.3211969 Z M40.5617701,20.4754345 C41.0659702,21.0437929 41.8154975,21.3903155 42.6470514,21.3903155 C43.4650597,21.3903155 44.214587,21.056797 44.7323328,20.4892036 C45.1951433,19.9766867 45.4961583,19.2561031 45.4961583,18.4108327 C45.4961583,17.5517931 45.1823502,16.8174404 44.7187871,16.3186926 C44.1874957,15.7641034 43.4379683,15.4321148 42.6470514,15.4321148 C41.8433414,15.4321148 41.0795159,15.7648683 40.5617701,16.3332266 C40.0839088,16.8457436 39.7843989,17.5663271 39.7843989,18.4115976 C39.7843989,19.242334 40.0846613,19.9629176 40.5617701,20.4754345 Z" id="Shape"></path>
                    <path d="M48.0608061,22.5675746 L48.0608061,14.2548557 L52.286304,14.2548557 C52.9944418,14.2548557 53.6769933,14.5042296 54.1398038,14.9746743 C54.494249,15.3487351 54.6989392,15.8337139 54.6989392,16.4433795 C54.6989392,16.762364 54.6440039,17.0668143 54.494249,17.3444914 C54.3723379,17.5517931 54.194739,17.7460905 53.9358662,17.9120848 L53.9358662,17.9816953 C54.2767656,18.1339205 54.5491842,18.3695253 54.7538744,18.6464375 C55.026293,19.0350324 55.1625022,19.5054771 55.1625022,20.017994 C55.1625022,20.7385775 54.8900837,21.3620123 54.4129749,21.8056837 C53.9087748,22.2906624 53.2277284,22.5675746 52.4503572,22.5675746 L48.0608061,22.5675746 Z M52.9951943,15.8207097 C52.8048023,15.6409463 52.5323838,15.5437976 52.20503,15.5437976 L49.505678,15.5437976 L49.505678,17.4699433 L52.4225133,17.4699433 C52.6678405,17.4699433 52.899622,17.3452564 53.0358313,17.1784971 C53.1998845,16.9849646 53.2676129,16.7485949 53.2676129,16.513755 C53.2676129,16.2223088 53.1720406,15.985939 52.9951943,15.8207097 Z M53.4858487,19.1872576 C53.2540672,18.9233496 52.8860764,18.7573553 52.5316312,18.7573553 L49.505678,18.7573553 L49.505678,21.2786327 L52.4639028,21.2786327 C52.8318937,21.2786327 53.1720406,21.1126384 53.431666,20.8770336 C53.622058,20.669732 53.7447216,20.3507476 53.7447216,20.0042249 C53.7447216,19.6852405 53.6499019,19.3807901 53.4858487,19.1872576 Z" id="Shape"></path>
                    <path d="M62.4846919,21.6809968 C61.9255566,22.2485902 61.1353922,22.5675746 60.2902926,22.5675746 L56.3786028,22.5675746 L56.3786028,14.2548557 L57.8362679,14.2548557 L57.8362679,16.4854518 L60.2902926,16.4854518 C61.1895749,16.4854518 61.9804918,16.8595127 62.5531728,17.4554093 C63.0430747,17.9816953 63.3433372,18.6885098 63.3433372,19.506242 C63.3433372,20.3920549 63.0159834,21.1264075 62.4846919,21.6809968 Z M61.4484478,18.3557562 C61.1624836,18.0513058 60.74031,17.8149361 60.2218117,17.8149361 L57.8362679,17.8149361 L57.8362679,21.2380903 L60.3030858,21.2380903 C60.7531032,21.2380903 61.1346397,21.0437929 61.4078108,20.7668807 C61.7351646,20.4754345 61.8849195,20.0049899 61.8849195,19.506242 C61.8849195,19.0763397 61.7351646,18.6602066 61.4484478,18.3557562 Z M65.5919192,22.5675746 L64.1477997,22.5675746 L64.1477997,14.2548557 L65.5919192,14.2548557 L65.5919192,22.5675746 Z" id="Shape"></path>
                    <polygon id="Shape" points="70.748306 17.3299574 72.7786521 14.2548557 74.4959426 14.2548557 71.7017709 18.2586075 74.8225439 22.5675746 72.9961354 22.5675746 70.6790725 19.2147958 68.3620096 22.5675746 66.6718104 22.5675746 69.7113093 18.2723766 66.7816809 14.2548557 68.6080894 14.2548557"></polygon>
                    <polygon id="Shape" points="81.5878558 14.2548557 84.4775997 18.3695253 87.2988627 14.2548557 88.8663983 14.2548557 88.8663983 22.5675746 87.4215263 22.5675746 87.4215263 16.4709178 87.3673436 16.4709178 84.6822899 20.3369784 84.1509984 20.3369784 81.4388534 16.4709178 81.3846707 16.4709178 81.3846707 22.5675746 80.0075271 22.5675746 80.0075271 14.2548557"></polygon>
                    <polygon id="Shape" points="90.2322538 14.2548557 96.5836701 14.2548557 96.5836701 15.6118782 91.7042171 15.6118782 91.7042171 17.538024 96.0659243 17.538024 96.0659243 18.8828072 91.7042171 18.8828072 91.7042171 21.2243212 96.7748146 21.2243212 96.7748146 22.5683395 90.2322538 22.5683395 90.2322538 14.2548557"></polygon>
                    <path d="M104.151187,19.4358666 C103.578506,19.9904558 102.801887,20.3094402 101.956788,20.3094402 L99.4756717,20.3094402 L99.4756717,22.5675746 L97.9901627,22.5675746 L97.9901627,14.2548557 L101.956788,14.2548557 C102.911005,14.2548557 103.783196,14.6702239 104.355877,15.3632692 C104.778803,15.8895553 105.037676,16.5275241 105.037676,17.3024191 C105.037676,18.1484546 104.682478,18.9103454 104.151187,19.4358666 Z M103.156332,18.4383709 C103.374568,18.1193865 103.56496,17.67648 103.56496,17.3024191 C103.56496,16.8595127 103.428751,16.4579136 103.156332,16.1664674 C102.870368,15.8207097 102.421103,15.6118782 101.902605,15.6118782 L99.4756717,15.6118782 L99.4756717,18.9654219 L102.01097,18.9654219 C102.460988,18.9654219 102.89746,18.7435862 103.156332,18.4383709 Z" id="Shape"></path>
                    <path d="M113.259148,15.3211969 C114.036519,16.1251601 114.472239,17.2190395 114.472239,18.4108327 C114.472239,19.6026258 114.049312,20.6559629 113.314083,21.4308579 C112.536712,22.234821 111.459831,22.7197998 110.164714,22.7197998 C108.869597,22.7197998 107.724987,22.1522064 106.97546,21.3337092 C106.294414,20.5863524 105.844396,19.5192462 105.844396,18.4108327 C105.844396,17.2611118 106.26657,16.2077747 106.989006,15.4313498 C107.752079,14.6143825 108.869597,14.1018656 110.164714,14.1018656 C111.43274,14.1018656 112.509621,14.5593061 113.259148,15.3211969 Z M108.080185,20.4754345 C108.584385,21.0437929 109.333913,21.3903155 110.165467,21.3903155 C110.983475,21.3903155 111.733002,21.056797 112.250748,20.4892036 C112.713558,19.9766867 113.014573,19.2561031 113.014573,18.4108327 C113.014573,17.5517931 112.700765,16.8174404 112.237202,16.3186926 C111.705911,15.7641034 110.956383,15.4321148 110.165467,15.4321148 C109.361757,15.4321148 108.597931,15.7648683 108.080185,16.3332266 C107.602324,16.8457436 107.302814,17.5663271 107.302814,18.4115976 C107.302814,19.242334 107.602324,19.9629176 108.080185,20.4754345 Z" id="Shape"></path>
                    <polygon id="Shape" points="122.667372 14.2548557 122.667372 22.5675746 121.208954 22.5675746 121.208954 15.5843399 117.024093 15.5843399 117.024093 22.5675746 115.565675 22.5675746 115.565675 14.2548557"></polygon>
                    <path d="M130.179953,19.4358666 C129.607272,19.9904558 128.830654,20.3094402 127.985554,20.3094402 L125.504438,20.3094402 L125.504438,22.5675746 L124.018929,22.5675746 L124.018929,14.2548557 L127.985554,14.2548557 C128.939772,14.2548557 129.811962,14.6702239 130.384644,15.3632692 C130.80757,15.8895553 131.066442,16.5275241 131.066442,17.3024191 C131.066442,18.1484546 130.711245,18.9103454 130.179953,19.4358666 Z M129.185099,18.4383709 C129.403335,18.1193865 129.593727,17.67648 129.593727,17.3024191 C129.593727,16.8595127 129.457517,16.4579136 129.185099,16.1664674 C128.899135,15.8207097 128.449117,15.6118782 127.931371,15.6118782 L125.504438,15.6118782 L125.504438,18.9654219 L128.039737,18.9654219 C128.489754,18.9654219 128.926226,18.7435862 129.185099,18.4383709 Z" id="Shape"></path>
                    <polygon id="Shape" points="133.563362 20.3094402 138.238125 14.2548557 139.573879 14.2548557 139.573879 22.5675746 138.183189 22.5675746 138.183189 16.498456 133.480583 22.5675746 132.145581 22.5675746 132.145581 14.2548557 133.563362 14.2548557"></polygon>
                    <path d="M141.49887,15.2240482 C142.084344,14.6289166 142.902352,14.2548557 143.843024,14.2548557 L147.795351,14.2548557 L147.795351,22.5675746 L146.350479,22.5675746 L146.350479,20.3224444 L143.774543,20.3224444 C143.31098,21.0430279 142.779688,21.8332219 142.316125,22.5675746 L140.639472,22.5675746 L142.356762,20.0042249 C141.893952,19.7403169 141.511663,19.4220974 141.225698,19.0204983 C140.871253,18.5217505 140.694407,17.9396231 140.694407,17.3024191 C140.695159,16.4709178 140.994669,15.7510992 141.49887,15.2240482 Z M142.480178,18.3136839 C142.739804,18.7015139 143.21616,18.9929601 143.843024,18.9929601 L146.350479,18.9929601 L146.350479,15.5843399 L143.843024,15.5843399 C143.283888,15.5843399 142.793987,15.8757862 142.520815,16.249847 C142.30258,16.5267592 142.179916,16.90082 142.179916,17.3024191 C142.180668,17.67648 142.303332,18.0513058 142.480178,18.3136839 Z" id="Shape"></path>
                    <polygon id="Shape" points="148.806761 14.2548557 156.316332 14.2548557 156.316332 15.5843399 153.277586 15.5843399 153.277586 22.5675746 151.84626 22.5675746 151.84626 15.5843399 148.806761 15.5843399"></polygon>
                    <polygon id="Shape" points="158.746276 20.3094402 163.421039 14.2548557 164.756793 14.2548557 164.756793 22.5675746 163.366104 22.5675746 163.366104 16.498456 158.663497 22.5675746 157.328495 22.5675746 157.328495 14.2548557 158.746276 14.2548557"></polygon>
                    <path d="M167.526883,20.3094402 L172.201646,14.2548557 L173.5374,14.2548557 L173.5374,22.5675746 L172.146711,22.5675746 L172.146711,16.498456 L167.444104,22.5675746 L166.109103,22.5675746 L166.109103,14.2548557 L167.526883,14.2548557 L167.526883,20.3094402 Z M171.984163,12.2590994 C171.833655,12.6752326 171.547691,13.0072211 171.247429,13.242826 C170.892983,13.5197381 170.416627,13.6727282 169.938766,13.6727282 C169.475955,13.6727282 169.01164,13.5335072 168.657947,13.242826 C168.358437,13.0072211 168.072473,12.6752326 167.922718,12.2590994 L168.91682,11.7741207 C169.012392,11.9821873 169.12151,12.1481815 169.272018,12.2866376 C169.448864,12.4533969 169.6671,12.5505456 169.953064,12.5505456 C170.225483,12.5505456 170.443719,12.467166 170.621317,12.3141758 C170.771072,12.1894889 170.893736,12.0097255 170.989308,11.7741207 L171.984163,12.2590994 Z" id="Shape"></path>
                </g>
            </g>
        </g>
    </g>
</svg>